{
	"name": "Siads4all",
	"dockerComposeFile": [
		"../docker-compose.yml",
		"../docker-compose.override.yml"
	],
	"service": "app",
	"workspaceFolder": "/var/www/html/siads4all",

	// Set *default* container specific settings.json values on container create.
	"settings": {
		"php.validate.executablePath": "/usr/local/bin/php"
	},

	// Add the IDs of extensions you want installed when the container is created.
	"extensions": [
		"felixfbecker.php-debug",
		"bmewburn.vscode-intelephense-client",
		"mrmlnc.vscode-apache",
        "eamodio.gitlens"
	],

	// Use 'forwardPorts' to make a list of ports inside the container available locally.
	// "forwardPorts": [8080],

	// Use 'portsAttributes' to set default properties for specific forwarded ports. More info: https://code.visualstudio.com/docs/remote/devcontainerjson-reference.
	"portsAttributes": {

	}

}